{
	"schema": {
		"textField": {
			"type": "text",
			"title": "A text field",
			"description": "Text field with description",
			"ui": {
				"pattern": "^A.*"
			}
		},
		"chkBox": {
			"type": "checkbox",
			"title": "Check me",
			"description": "Checkbox with description",
			"ui": {
				"value": "1"
			}
		},
		"colPicker": {
			"type": "color",
			"title": "Pick a color",
			"description": "Color picker with description"
		},
		"datePicker": {
			"type": "date",
			"title": "Pick a date",
			"description": "Date picker with description",
			"ui": {
				"max": "2020-01-01"
			}
		},
		"localDatePicker": {
			"type": "datetime-local",
			"title": "Pick a local date",
			"description": "Local date picker with description"
		},
		"textEmail": {
			"type": "email",
			"title": "Email",
			"description": "email field with description"
		},
		"hidText": {
			"type": "hidden",
			"title": "Hidden",
			"description": "Value must be set in the initial_values"
		},
		"monthPicker": {
			"type": "month",
			"title": "Month",
			"description": "Month picker with description"
		},
		"txtNumber": {
			"type": "number",
			"title": "A number",
			"description": "Number picker with description",
			"ui": {
				"min": 0,
				"step": 5
			}
		},
		"txtPassword": {
			"type": "password",
			"title": "Password",
			"description": "Password field with description"
		},
		"optRadio": {
			"type": "radio",
			"title": "Radio buttons",
			"description": "Radio buttons with description",
			"ui": {
				"elements": [{"label":"Opt1", "value":1},{"label":"Opt2", "value":2}]
			}
		},
		"rngNumber": {
			"type": "range",
			"title": "Range",
			"description": "Value must be set in the initial_values",
			"ui": {
				"min": -5,
				"max": 5
			}
		},
		"txtPhone": {
			"type": "tel",
			"title": "Tel",
			"description": "Tel field with description"
		},
		"timePicker": {
			"type": "time",
			"title": "Time",
			"description": "Time picker with description"
		},
		"urlPicker": {
			"type": "url",
			"title": "URL",
			"description": "URL field with description"
		},
		"weekPicker": {
			"type": "week",
			"title": "Week",
			"description": "Week picker with description"
		},
		"txtArea": {
			"type": "textarea",
			"title": "Miltiline text",
			"description": "Textarea with description",
			"ui": {
				"rows": 3,
				"cols": 15
			}
		}
	},
	"initial_values": {
		"textField": "Asd",
		"chkBox": 1,
		"colPicker": "#ffffff",
		"hidText": 1,
		"rngNumber": -5,
		"timePicker": "16:00",
		"optRadio": 1
	}
}